%YAML 1.1
%TAG !u! tag:unity3d.com,2011:
--- !u!95 &7084390483776164350
Animator:
  serializedVersion: 3
  m_ObjectHideFlags: 0
  m_CorrespondingSourceObject: {fileID: 0}
  m_PrefabInstance: {fileID: 0}
  m_PrefabAsset: {fileID: 0}
  m_GameObject: {fileID: 5637254954741097164}
  m_Enabled: 1
  m_Avatar: {fileID: 0}
  m_Controller: {fileID: 9100000, guid: bca75cf1fe3dbdf40b54e85fab16c99e, type: 2}
  m_CullingMode: 0
  m_UpdateMode: 0
  m_ApplyRootMotion: 0
  m_LinearVelocityBlending: 0
  m_WarningMessage: 
  m_HasTransformHierarchy: 1
  m_AllowConstantClipSamplingOptimization: 1
  m_KeepAnimatorControllerStateOnDisable: 0
--- !u!1001 &4826420993292132253
PrefabInstance:
  m_ObjectHideFlags: 0
  serializedVersion: 2
  m_Modification:
    m_TransformParent: {fileID: 0}
    m_Modifications:
    - target: {fileID: -8679921383154817045, guid: 0db4dc685c557ef40acef4700c59c996, type: 3}
      propertyPath: m_RootOrder
      value: 0
      objectReference: {fileID: 0}
    - target: {fileID: -8679921383154817045, guid: 0db4dc685c557ef40acef4700c59c996, type: 3}
      propertyPath: m_LocalPosition.x
      value: 4.824563
      objectReference: {fileID: 0}
    - target: {fileID: -8679921383154817045, guid: 0db4dc685c557ef40acef4700c59c996, type: 3}
      propertyPath: m_LocalPosition.y
      value: -0.17000002
      objectReference: {fileID: 0}
    - target: {fileID: -8679921383154817045, guid: 0db4dc685c557ef40acef4700c59c996, type: 3}
      propertyPath: m_LocalPosition.z
      value: -9.1
      objectReference: {fileID: 0}
    - target: {fileID: -8679921383154817045, guid: 0db4dc685c557ef40acef4700c59c996, type: 3}
      propertyPath: m_LocalRotation.w
      value: 0.7071068
      objectReference: {fileID: 0}
    - target: {fileID: -8679921383154817045, guid: 0db4dc685c557ef40acef4700c59c996, type: 3}
      propertyPath: m_LocalRotation.x
      value: 0
      objectReference: {fileID: 0}
    - target: {fileID: -8679921383154817045, guid: 0db4dc685c557ef40acef4700c59c996, type: 3}
      propertyPath: m_LocalRotation.y
      value: 0.7071068
      objectReference: {fileID: 0}
    - target: {fileID: -8679921383154817045, guid: 0db4dc685c557ef40acef4700c59c996, type: 3}
      propertyPath: m_LocalRotation.z
      value: 0
      objectReference: {fileID: 0}
    - target: {fileID: -8679921383154817045, guid: 0db4dc685c557ef40acef4700c59c996, type: 3}
      propertyPath: m_LocalEulerAnglesHint.x
      value: 0
      objectReference: {fileID: 0}
    - target: {fileID: -8679921383154817045, guid: 0db4dc685c557ef40acef4700c59c996, type: 3}
      propertyPath: m_LocalEulerAnglesHint.y
      value: 90
      objectReference: {fileID: 0}
    - target: {fileID: -8679921383154817045, guid: 0db4dc685c557ef40acef4700c59c996, type: 3}
      propertyPath: m_LocalEulerAnglesHint.z
      value: 0
      objectReference: {fileID: 0}
    - target: {fileID: 919132149155446097, guid: 0db4dc685c557ef40acef4700c59c996, type: 3}
      propertyPath: m_Name
      value: Train
      objectReference: {fileID: 0}
    m_RemovedComponents: []
  m_SourcePrefab: {fileID: 100100000, guid: 0db4dc685c557ef40acef4700c59c996, type: 3}
--- !u!1 &5637254954741097164 stripped
GameObject:
  m_CorrespondingSourceObject: {fileID: 919132149155446097, guid: 0db4dc685c557ef40acef4700c59c996, type: 3}
  m_PrefabInstance: {fileID: 4826420993292132253}
  m_PrefabAsset: {fileID: 0}
